{
  "results": [
    {
      "id": 32,
      "description": "ночной Белгород",
      "time_of_day": "night",
      "createdAt": "2023-05-12T16:08:08.795Z",
      "updatedAt": "2023-05-12T16:33:50.064Z",
      "city": "Белгород",
      "video": { "id": 145, "url": "/uploads/Belgorod_Noch_a2561725c0.mp4" },
      "poster": {
        "id": 125,
        "url": "/uploads/Belgorod_Noch_mp4_poster_b593de63bb.png",
        "previewUrl": "/uploads/thumbnail_Belgorod_Noch_mp4_poster_b593de63bb.png"
      },
      "thumbnail": {
        "id": 132,
        "url": "/uploads/Belgorod_Noch_mp4_thumb_8e63aba026.png",
        "previewUrl": "/uploads/thumbnail_Belgorod_Noch_mp4_thumb_8e63aba026.png"
      }
    },
    {
      "id": 33,
      "description": "Адлер утром",
      "time_of_day": "morning",
      "createdAt": "2023-05-12T16:10:48.000Z",
      "updatedAt": "2023-05-12T16:35:20.705Z",
      "city": "Адлер",
      "video": { "id": 143, "url": "/uploads/Adler_Utro_4bfbf86594.mp4" },
      "poster": {
        "id": 124,
        "url": "/uploads/Adler_Utro_mp4_poster_e4d1e4fe6d.png",
        "previewUrl": "/uploads/thumbnail_Adler_Utro_mp4_poster_e4d1e4fe6d.png"
      },
      "thumbnail": {
        "id": 139,
        "url": "/uploads/Adler_Utro_mp4_thumb_aa34fe8f1a.png",
        "previewUrl": "/uploads/thumbnail_Adler_Utro_mp4_thumb_aa34fe8f1a.png"
      }
    },
    {
      "id": 34,
      "description": "Воронеж днем",
      "time_of_day": "afternoon",
      "createdAt": "2023-05-12T16:18:31.978Z",
      "updatedAt": "2023-05-12T16:36:22.215Z",
      "city": "Воронеж",
      "video": { "id": 141, "url": "/uploads/Voronezh_Den_f8eb5e29df.mp4" },
      "poster": {
        "id": 116,
        "url": "/uploads/Voronezh_Den_mp4_poster_bea3eae723.png",
        "previewUrl": "/uploads/thumbnail_Voronezh_Den_mp4_poster_bea3eae723.png"
      },
      "thumbnail": {
        "id": 128,
        "url": "/uploads/Voronezh_Den_mp4_thumb_f15c5913ca.png",
        "previewUrl": "/uploads/thumbnail_Voronezh_Den_mp4_thumb_f15c5913ca.png"
      }
    },
    {
      "id": 35,
      "description": "Утро в Дубае",
      "time_of_day": "morning",
      "createdAt": "2023-05-12T16:23:18.668Z",
      "updatedAt": "2023-05-12T16:37:24.379Z",
      "city": "Дубай",
      "video": { "id": 150, "url": "/uploads/Dubaj_Utro_df0fff748d.mp4" },
      "poster": {
        "id": 119,
        "url": "/uploads/Dubaj_Utro_mp4_poster_cdb5da5635.png",
        "previewUrl": "/uploads/thumbnail_Dubaj_Utro_mp4_poster_cdb5da5635.png"
      },
      "thumbnail": {
        "id": 135,
        "url": "/uploads/Dubaj_Utro_mp4_thumb_531e868753.png",
        "previewUrl": "/uploads/thumbnail_Dubaj_Utro_mp4_thumb_531e868753.png"
      }
    },
    {
      "id": 36,
      "description": "Дневной Зеленоградск",
      "time_of_day": "afternoon",
      "createdAt": "2023-05-12T16:25:46.303Z",
      "updatedAt": "2023-05-12T16:38:08.675Z",
      "city": "Зеленоградск",
      "video": { "id": 140, "url": "/uploads/Zelenogradsk_Den_a0e7994fa7.mp4" },
      "poster": {
        "id": 121,
        "url": "/uploads/Zelenogradsk_Den_mp4_poster_d2929523b7.png",
        "previewUrl": "/uploads/thumbnail_Zelenogradsk_Den_mp4_poster_d2929523b7.png"
      },
      "thumbnail": {
        "id": 138,
        "url": "/uploads/Zelenogradsk_Den_mp4_thumb_308d520d6c.png",
        "previewUrl": "/uploads/thumbnail_Zelenоградск_Den_mp4_thumb_308d520d6c.png"
      }
    }
  ],
  "pagination": {
    "page": 1,
    "pageSize": 5,
    "pageCount": 3,
    "total": 11
  }
}